{
	"process_id" : 12536,
	"version" : "2019.4.7f1",
	"app_path" : "C:/Program Files/Unity/Hub/Editor/2019.4.7f1/Editor/Unity.exe",
	"app_contents_path" : "C:/Program Files/Unity/Hub/Editor/2019.4.7f1/Editor/Data"
}